…
`get_cr_df()` first scrapes metadata for all subsections for each day of
the record, including headers and links to the raw text.

``` r
cr_metadata <- get_cr_df(as.Date("2007/03/01"), section = "senate-section")
```

    #> 2007-03-01

``` r
cr_metadata
```

    #> # A tibble: 55 × 4
    #>    header                                                                             date       section        url                                                                                     
    #>    <chr>                                                                              <date>     <chr>          <chr>                                                                                   
    #>  1 Senate; Congressional Record Vol. 153, No. 35                                      2007-03-01 senate-section https://www.congress.gov/congressional-record/volume-153/issue-35/senate-section/articl…
    #>  2 prayer; Congressional Record Vol. 153, No. 35                                      2007-03-01 senate-section https://www.congress.gov/congressional-record/volume-153/issue-35/senate-section/articl…
    #>  3 PLEDGE OF ALLEGIANCE; Congressional Record Vol. 153, No. 35                        2007-03-01 senate-section https://www.congress.gov/congressional-record/volume-153/issue-35/senate-section/articl…
    #>  4 APPOINTMENT OF ACTING PRESIDENT PRO TEMPORE; Congressional Record Vol. 153, No. 35 2007-03-01 senate-section https://www.congress.gov/congressional-record/volume-153/issue-35/senate-section/articl…
    #>  5 RECOGNITION OF THE MAJORITY LEADER; Congressional Record Vol. 153, No. 35          2007-03-01 senate-section https://www.congress.gov/congressional-record/volume-153/issue-35/senate-section/articl…
    #>  6 SCHEDULE; Congressional Record Vol. 153, No. 35                                    2007-03-01 senate-section https://www.congress.gov/congressional-record/volume-153/issue-35/senate-section/articl…
    #>  7 RESERVATION OF LEADER TIME; Congressional Record Vol. 153, No. 35                  2007-03-01 senate-section https://www.congress.gov/congressional-record/volume-153/issue-35/senate-section/articl…
    #>  8 MORNING BUSINESS; Congressional Record Vol. 153, No. 35                            2007-03-01 senate-section https://www.congress.gov/congressional-record/volume-153/issue-35/senate-section/articl…
    #>  9 TSA; Congressional Record Vol. 153, No. 35                                         2007-03-01 senate-section https://www.congress.gov/congressional-record/volume-153/issue-35/senate-section/articl…
    #> 10 FDA REGULATION OF TOBACCO; Congressional Record Vol. 153, No. 35                   2007-03-01 senate-section https://www.congress.gov/congressional-record/volume-153/issue-35/senate-section/articl…
    #> # … with 45 more rows
…
